Fitting qpAdm models with a 'rotation' strategy • admixr
…
models <- qpAdm_rotation(
    data = snps,
    target = "French",
    candidates = c("Dinka", "Mbuti", "Yoruba", "Vindija", "Altai", "Denisova", "Chimp"),
    minimize = TRUE,
    nsources = 2,
    ncores = 2,
    fulloutput = TRUE
)

Here is what the full output looks like:

models
#> $proportions
#> # A tibble: 336 × 13
#>    model target source1 source2 outgr…¹ noutg…²  pvalue    prop1   prop2 stderr1
#>    <chr> <chr>  <chr>   <chr>   <chr>     <int>   <dbl>    <dbl>   <dbl>   <dbl>
#>  1 m1    French Dinka   Mbuti   Yoruba…       3 4.06e-2    0.757   0.243 5.2 e-2
#>  2 m2    French Dinka   Mbuti   Yoruba…       3 1.56e-2    0.774   0.226 5.2 e-2
#>  3 m3    French Dinka   Mbuti   Yoruba…       3 3.58e-7    0.895   0.105 4.9 e-2
#>  4 m4    French Dinka   Mbuti   Yoruba…       3 6.86e-2    0.781   0.219 5.1 e-2
#>  5 m5    French Dinka   Mbuti   Yoruba…       3 6.73e-6    0.892   0.108 4.9 e-2
#>  6 m6    French Dinka   Mbuti   Yoruba…       3 4.03e-3    0.89    0.11  4.6 e-2
#>  7 m7    French Dinka   Mbuti   Vindij…       3 6.73e-2   -7.98    8.98  9.52e+1
#>  8 m8    French Dinka   Mbuti   Vindij…       3 4.65e-1   46.2   -45.2   7.68e+3
#>  9 m9    French Dinka   Mbuti   Vindij…       3 1.88e-1 -177.    178.    2.83e+5
#> 10 m10   French Dinka   Mbuti   Altai …       3 1.33e-1  -37.5    38.5   3.64e+3
#> # … with 326 more rows, 3 more variables: stderr2 <dbl>, nsnps_used <dbl>,
#> #   nsnps_target <dbl>, and abbreviated variable names ¹​outgroups, ²​noutgroups
#> # ℹ Use `print(n = ...)` to see more rows, and `colnames()` to see all variable names
#> 
#> $ranks
#> # A tibble: 672 × 9
#>    model target  rank    df chisq        tail dfdiff chisqdiff    taildiff
#>    <chr> <chr>  <dbl> <dbl> <dbl>       <dbl>  <dbl>     <dbl>       <dbl>
#>  1 m1    French     1     1  4.19 0.0406           3     -4.19 1          
#>  2 m1    French     2     0  0    1                1      4.19 0.0406     
#>  3 m10   French     1     1  5.85 0.0156           3     -5.85 1          
#>  4 m10   French     2     0  0    1                1      5.85 0.0156     
#>  5 m100  French     1     1 25.9  0.000000358      3    -25.9  1          
#>  6 m100  French     2     0  0    1                1     25.9  0.000000358
#>  7 m101  French     1     1  3.32 0.0686           3     -3.32 1          
#>  8 m101  French     2     0  0    1                1      3.32 0.0686     
#>  9 m102  French     1     1 20.3  0.00000673       3    -20.3  1          
#> 10 m102  French     2     0  0    1                1     20.3  0.00000673 
#> # … with 662 more rows
#> # ℹ Use `print(n = ...)` to see more rows
#> 
#> $subsets
#> # A tibble: 1,008 × 12
#>    model target source1 source2 pattern    wt   dof  chisq      tail prop1 prop2
#>    <chr> <chr>  <chr>   <chr>   <chr>   <dbl> <dbl>  <dbl>     <dbl> <dbl> <dbl>
#>  1 m1    French Dinka   Mbuti   00          0     1   4.19   4.06e-2 0.757 0.243
#>  2 m1    French Dinka   Mbuti   01          1     2  23.4    8.44e-6 1     0    
#>  3 m1    French Dinka   Mbuti   10          1     2 159.     0       0     1    
#>  4 m10   French Dinka   Mbuti   00          0     1   5.85   1.56e-2 0.774 0.226
#>  5 m10   French Dinka   Mbuti   01          1     2  23.1    9.68e-6 1     0    
#>  6 m10   French Dinka   Mbuti   10          1     2 162.     0       0     1    
#>  7 m100  French Dinka   Mbuti   00          0     1  25.9    3.58e-7 0.895 0.105
#>  8 m100  French Dinka   Mbuti   01          1     2  30.6    2.31e-7 1     0    
#>  9 m100  French Dinka   Mbuti   10          1     2 287.     0       0     1    
#> 10 m101  French Dinka   Mbuti   00          0     1   3.32   6.86e-2 0.781 0.219
#> # … with 998 more rows, and 1 more variable: comment <chr>
#> # ℹ Use `print(n = ...)` to see more rows, and `colnames()` to see all variable names
…
