…
Here is what the full output looks like:

``` r

models
#> $proportions
#> # A tibble: 336 × 13
#>    model target source1 source2 outgroups    noutgroups  pvalue    prop1   prop2
#>    <chr> <chr>  <chr>   <chr>   <chr>             <int>   <dbl>    <dbl>   <dbl>
#>  1 m1    French Dinka   Mbuti   Yoruba & Vi…          3 3.87e-2    0.757   0.243
#>  2 m2    French Dinka   Mbuti   Yoruba & Vi…          3 1.55e-2    0.774   0.226
#>  3 m3    French Dinka   Mbuti   Yoruba & Vi…          3 3.49e-7    0.895   0.105
#>  4 m4    French Dinka   Mbuti   Yoruba & Al…          3 6.83e-2    0.781   0.219
#>  5 m5    French Dinka   Mbuti   Yoruba & Al…          3 6.59e-6    0.892   0.108
#>  6 m6    French Dinka   Mbuti   Yoruba & De…          3 3.99e-3    0.89    0.11 
#>  7 m7    French Dinka   Mbuti   Vindija & A…          3 6.69e-2   -8.09    9.09 
#>  8 m8    French Dinka   Mbuti   Vindija & A…          3 4.64e-1   45.9   -44.9  
#>  9 m9    French Dinka   Mbuti   Vindija & D…          3 1.88e-1 -180.    181.   
#> 10 m10   French Dinka   Mbuti   Altai & Den…          3 1.33e-1  -37.8    38.8  
#> # ℹ 326 more rows
#> # ℹ 4 more variables: stderr1 <dbl>, stderr2 <dbl>, nsnps_used <dbl>,
#> #   nsnps_target <dbl>
#> 
#> $ranks
#> # A tibble: 672 × 9
#>    model target  rank    df chisq        tail dfdiff chisqdiff    taildiff
#>    <chr> <chr>  <dbl> <dbl> <dbl>       <dbl>  <dbl>     <dbl>       <dbl>
#>  1 m1    French     1     1  4.27 0.0387           3     -4.27 1          
#>  2 m1    French     2     0  0    1                1      4.27 0.0387     
#>  3 m10   French     1     1  5.86 0.0155           3     -5.86 1          
#>  4 m10   French     2     0  0    1                1      5.86 0.0155     
#>  5 m100  French     1     1 26.0  0.000000349      3    -26.0  1          
#>  6 m100  French     2     0  0    1                1     26.0  0.000000349
#>  7 m101  French     1     1  3.32 0.0683           3     -3.32 1          
#>  8 m101  French     2     0  0    1                1      3.32 0.0683     
#>  9 m102  French     1     1 20.3  0.00000659       3    -20.3  1          
#> 10 m102  French     2     0  0    1                1     20.3  0.00000659 
#> # ℹ 662 more rows
#> 
#> $subsets
#> # A tibble: 1,008 × 12
#>    model target source1 source2 pattern    wt   dof  chisq      tail prop1 prop2
#>    <chr> <chr>  <chr>   <chr>   <chr>   <dbl> <dbl>  <dbl>     <dbl> <dbl> <dbl>
#>  1 m1    French Dinka   Mbuti   00          0     1   4.27   3.87e-2 0.757 0.243
#>  2 m1    French Dinka   Mbuti   01          1     2  23.5    7.87e-6 1     0    
#>  3 m1    French Dinka   Mbuti   10          1     2 160.     0       0     1    
#>  4 m10   French Dinka   Mbuti   00          0     1   5.86   1.55e-2 0.774 0.226
#>  5 m10   French Dinka   Mbuti   01          1     2  23.1    9.50e-6 1     0    
#>  6 m10   French Dinka   Mbuti   10          1     2 162.     0       0     1    
#>  7 m100  French Dinka   Mbuti   00          0     1  26.0    3.49e-7 0.895 0.105
#>  8 m100  French Dinka   Mbuti   01          1     2  30.6    2.22e-7 1     0    
#>  9 m100  French Dinka   Mbuti   10          1     2 287.     0       0     1    
#> 10 m101  French Dinka   Mbuti   00          0     1   3.32   6.83e-2 0.781 0.219
#> # ℹ 998 more rows
#> # ℹ 1 more variable: comment <chr>
```
…
